simulation/qsim/FrequencyDivider.msim.vcd
$comment
	File created using the following command:
		vcd file FrequencyDivider.msim.vcd -direction
$end
$date
	Mon Apr 15 01:34:06 2019
$end
$version
	ModelSim Version 10.5b
$end
$timescale
	1ps
$end

$scope module Main_vlg_vec_tst $end
$var reg 3 ! divider [2:0] $end
$var reg 1 " inClk $end
$var reg 1 # reset $end
$var wire 1 $ outClk $end

$scope module i1 $end
$var wire 1 % gnd $end
$var wire 1 & vcc $end
$var wire 1 ' unknown $end
$var tri1 1 ( devclrn $end
$var tri1 1 ) devpor $end
$var tri1 1 * devoe $end
$var wire 1 + ~QUARTUS_CREATED_GND~I_combout $end
$var wire 1 , ~QUARTUS_CREATED_UNVM~~busy $end
$var wire 1 - ~QUARTUS_CREATED_ADC1~~eoc $end
$var wire 1 . ~QUARTUS_CREATED_ADC2~~eoc $end
$var wire 1 / outClk~output_o $end
$var wire 1 0 divider[1]~input_o $end
$var wire 1 1 inClk~input_o $end
$var wire 1 2 inClk~inputclkctrl_outclk $end
$var wire 1 3 frequency_divider|counter[0]~21_combout $end
$var wire 1 4 reset~input_o $end
$var wire 1 5 reset~inputclkctrl_outclk $end
$var wire 1 6 frequency_divider|counter[1]~7_combout $end
$var wire 1 7 frequency_divider|counter[1]~8 $end
$var wire 1 8 frequency_divider|counter[2]~9_combout $end
$var wire 1 9 frequency_divider|counter[2]~10 $end
$var wire 1 : frequency_divider|counter[3]~11_combout $end
$var wire 1 ; frequency_divider|counter[3]~12 $end
$var wire 1 < frequency_divider|counter[4]~13_combout $end
$var wire 1 = divider[0]~input_o $end
$var wire 1 > frequency_divider|counter[4]~14 $end
$var wire 1 ? frequency_divider|counter[5]~15_combout $end
$var wire 1 @ frequency_divider|counter[5]~16 $end
$var wire 1 A frequency_divider|counter[6]~17_combout $end
$var wire 1 B frequency_divider|Mux0~0_combout $end
$var wire 1 C frequency_divider|counter[6]~18 $end
$var wire 1 D frequency_divider|counter[7]~19_combout $end
$var wire 1 E frequency_divider|Mux0~1_combout $end
$var wire 1 F frequency_divider|Mux0~2_combout $end
$var wire 1 G frequency_divider|Mux0~3_combout $end
$var wire 1 H divider[2]~input_o $end
$var wire 1 I frequency_divider|Mux0~4_combout $end
$var wire 1 J frequency_divider|counter [7] $end
$var wire 1 K frequency_divider|counter [6] $end
$var wire 1 L frequency_divider|counter [5] $end
$var wire 1 M frequency_divider|counter [4] $end
$var wire 1 N frequency_divider|counter [3] $end
$var wire 1 O frequency_divider|counter [2] $end
$var wire 1 P frequency_divider|counter [1] $end
$var wire 1 Q frequency_divider|counter [0] $end
$upscope $end
$upscope $end
$enddefinitions $end
#0
$dumpvars
b10 !
0"
1#
0$
0%
1&
x'
1(
1)
1*
0+
z,
z-
z.
0/
10
01
02
13
14
15
06
07
08
19
0:
0;
0<
0=
1>
0?
0@
0A
0B
1C
0D
0E
0F
0G
0H
0I
0Q
0P
0O
0N
0M
0L
0K
0J
$end
#1500
1"
11
12
#3000
0"
01
02
#4500
1"
11
12
#6000
0"
01
02
#7500
1"
11
12
#9000
0"
01
02
#10500
1"
11
12
#12000
0"
01
02
#13500
1"
11
12
#15000
0"
01
02
#16500
1"
11
12
#18000
0"
01
02
#19500
1"
11
12
#21000
0"
01
02
#22500
1"
11
12
#24000
0"
01
02
#25500
1"
11
12
#27000
0"
01
02
#28500
1"
11
12
#30000
0#
0"
01
04
05
02
#31500
1"
11
12
1Q
16
03
#33000
0"
01
02
#34500
1"
11
12
1P
0Q
13
#36000
0"
01
02
#37500
1"
11
12
1Q
17
06
03
18
#39000
0"
01
02
#40500
1"
11
12
1O
0P
0Q
1G
09
07
08
13
19
1I
1:
18
1/
1$
0:
#42000
0"
01
02
#43500
1"
11
12
1Q
16
03
#45000
0"
01
02
#46500
1"
11
12
1P
0Q
13
#48000
0"
01
02
#49500
1"
11
12
1Q
17
06
03
09
08
1:
#51000
0"
01
02
#52500
1"
11
12
1N
0O
0P
0Q
0G
1;
19
07
0:
18
13
0;
0I
1<
1:
08
0/
0$
0<
#54000
0"
01
02
#55500
1"
11
12
1Q
16
03
#57000
0"
01
02
#58500
1"
11
12
1P
0Q
13
#60000
0"
01
02
#61500
1"
11
12
1Q
17
06
03
18
#63000
0"
01
02
#64500
1"
11
12
1O
0P
0Q
1G
09
07
08
13
1;
19
1I
0:
18
1/
0;
1$
1<
1:
0<
#66000
0"
01
02
#67500
1"
11
12
1Q
16
03
#69000
0"
01
02
#70500
1"
11
12
1P
0Q
13
#72000
0"
01
02
#73500
1"
11
12
1Q
17
06
03
09
08
1;
0:
1<
#75000
0"
01
02
#76500
1"
11
12
1M
0N
0O
0P
0Q
0>
0G
0;
19
07
0<
1:
18
13
1>
1?
0I
1<
0:
08
0/
0$
0?
#78000
0"
01
02
#79500
1"
11
12
1Q
16
03
#81000
0"
01
02
#82500
1"
11
12
1P
0Q
13
#84000
0"
01
02
#85500
1"
11
12
1Q
17
06
03
18
#87000
0"
01
02
#88500
1"
11
12
1O
0P
0Q
1G
09
07
08
13
19
1I
1:
18
1/
1$
0:
#90000
0"
01
02
#91500
1"
11
12
1Q
16
03
#93000
0"
01
02
#94500
1"
11
12
1P
0Q
13
#96000
0"
01
02
#97500
1"
11
12
1Q
17
06
03
09
08
1:
#99000
0"
01
02
#100500
1"
11
12
1N
0O
0P
0Q
0G
1;
19
07
0:
18
13
0>
0;
0I
0<
1:
08
0/
1>
0$
1?
1<
0?
#102000
0"
01
02
#103500
1"
11
12
1Q
16
03
#105000
0"
01
02
#106500
1"
11
12
1P
0Q
13
#108000
0"
01
02
#109500
1"
11
12
1Q
17
06
03
18
#111000
0"
01
02
#112500
1"
11
12
1O
0P
0Q
1G
09
07
08
13
1;
19
1I
0:
18
1/
0>
0;
1$
0<
1:
1>
1?
1<
0?
#114000
0"
01
02
#115500
1"
11
12
1Q
16
03
#117000
0"
01
02
#118500
1"
11
12
1P
0Q
13
#120000
0"
01
02
#121500
1"
11
12
1Q
17
06
03
09
08
1;
0:
0>
0<
1?
#123000
0"
01
02
#124500
1"
11
12
1L
0M
0N
0O
0P
0Q
1@
1>
0G
0;
19
07
0?
1<
1:
18
13
0@
1A
1?
0I
0<
0:
08
0/
0$
0A
#126000
0"
01
02
#127500
1"
11
12
1Q
16
03
#129000
0"
01
02
#130500
1"
11
12
1P
0Q
13
#132000
0"
01
02
#133500
1"
11
12
1Q
17
06
03
18
#135000
0"
01
02
#136500
1"
11
12
1O
0P
0Q
1G
09
07
08
13
19
1I
1:
18
1/
1$
0:
#138000
0"
01
02
#139500
1"
11
12
1Q
16
03
#141000
0"
01
02
#142500
1"
11
12
1P
0Q
13
#144000
0"
01
02
#145500
1"
11
12
1Q
17
06
03
09
08
1:
#147000
0"
01
02
#148500
1"
11
12
1N
0O
0P
0Q
0G
1;
19
07
0:
18
13
0;
0I
1<
1:
08
0/
0$
0<
#150000
0"
01
02
#151500
1"
11
12
1Q
16
03
#153000
0"
01
02
#154500
1"
11
12
1P
0Q
13
#156000
0"
01
02
#157500
1"
11
12
1Q
17
06
03
18
#159000
0"
01
02
#160500
1"
11
12
1O
0P
0Q
1G
09
07
08
13
1;
19
1I
0:
18
1/
0;
1$
1<
1:
0<
#162000
0"
01
02
#163500
1"
11
12
1Q
16
03
#165000
0"
01
02
#166500
1"
11
12
1P
0Q
13
#168000
0"
01
02
#169500
1"
11
12
1Q
17
06
03
09
08
1;
0:
1<
#171000
0"
01
02
#172500
1"
11
12
1M
0N
0O
0P
0Q
0>
0G
0;
19
07
0<
1:
18
13
1@
1>
0?
0I
1<
0:
08
0/
0@
0$
1A
1?
0A
#174000
0"
01
02
#175500
1"
11
12
1Q
16
03
#177000
0"
01
02
#178500
1"
11
12
1P
0Q
13
#180000
0"
01
02
#181500
1"
11
12
1Q
17
06
03
18
#183000
0"
01
02
#184500
1"
11
12
1O
0P
0Q
1G
09
07
08
13
19
1I
1:
18
1/
1$
0:
#186000
0"
01
02
#187500
1"
11
12
1Q
16
03
#189000
0"
01
02
#190500
1"
11
12
1P
0Q
13
#192000
0"
01
02
#193500
1"
11
12
1Q
17
06
03
09
08
1:
#195000
0"
01
02
#196500
1"
11
12
1N
0O
0P
0Q
0G
1;
19
07
0:
18
13
0>
0;
0I
0<
1:
08
0/
1@
1>
0$
0?
1<
0@
1A
1?
0A
#198000
0"
01
02
#199500
1"
11
12
1Q
16
03
#201000
0"
01
02
#202500
1"
11
12
1P
0Q
13
#204000
0"
01
02
#205500
1"
11
12
1Q
17
06
03
18
#207000
0"
01
02
#208500
1"
11
12
1O
0P
0Q
1G
09
07
08
13
1;
19
1I
0:
18
1/
0>
0;
1$
0<
1:
1@
1>
0?
1<
0@
1A
1?
0A
#210000
0"
01
02
#211500
1"
11
12
1Q
16
03
#213000
0"
01
02
#214500
1"
11
12
1P
0Q
13
#216000
0"
01
02
#217500
1"
11
12
1Q
17
06
03
09
08
1;
0:
0>
0<
1@
0?
1A
#219000
0"
01
02
#220500
1"
11
12
1K
0L
0M
0N
0O
0P
0Q
1B
0C
0@
1>
0G
0;
19
07
0A
1?
1<
1:
18
13
1E
1C
1D
1A
0?
0I
0<
0:
08
0/
0$
0D
#222000
0"
01
02
#223500
1"
11
12
1Q
16
03
#225000
0"
01
02
#226500
1"
11
12
1P
0Q
13
#228000
0"
01
02
#229500
1"
11
12
1Q
17
06
03
18
#231000
0"
01
02
#232500
1"
11
12
1O
0P
0Q
1G
09
07
08
13
19
1I
1:
18
1/
1$
0:
#234000
0"
01
02
#235500
1"
11
12
1Q
16
03
#237000
0"
01
02
#238500
1"
11
12
1P
0Q
13
#240000
0"
01
02
#241500
1"
11
12
1Q
17
06
03
09
08
1:
#243000
0"
01
02
#244500
1"
11
12
1N
0O
0P
0Q
0G
1;
19
07
0:
18
13
0;
0I
1<
1:
08
0/
0$
0<
#246000
0"
01
02
#247500
1"
11
12
1Q
16
03
#249000
0"
01
02
#250500
1"
11
12
1P
0Q
13
#252000
0"
01
02
#253500
1"
11
12
1Q
17
06
03
18
#255000
0"
01
02
#256500
1"
11
12
1O
0P
0Q
1G
09
07
08
13
1;
19
1I
0:
18
1/
0;
1$
1<
1:
0<
#258000
0"
01
02
#259500
1"
11
12
1Q
16
03
#261000
0"
01
02
#262500
1"
11
12
1P
0Q
13
#264000
0"
01
02
#265500
1"
11
12
1Q
17
06
03
09
08
1;
0:
1<
#267000
0"
01
02
#268500
1"
11
12
1M
0N
0O
0P
0Q
0>
0G
0;
19
07
0<
1:
18
13
1>
1?
0I
1<
0:
08
0/
0$
0?
#270000
0"
01
02
#271500
1"
11
12
1Q
16
03
#273000
0"
01
02
#274500
1"
11
12
1P
0Q
13
#276000
0"
01
02
#277500
1"
11
12
1Q
17
06
03
18
#279000
0"
01
02
#280500
1"
11
12
1O
0P
0Q
1G
09
07
08
13
19
1I
1:
18
1/
1$
0:
#282000
0"
01
02
#283500
1"
11
12
1Q
16
03
#285000
0"
01
02
#286500
1"
11
12
1P
0Q
13
#288000
0"
01
02
#289500
1"
11
12
1Q
17
06
03
09
08
1:
#291000
0"
01
02
#292500
1"
11
12
1N
0O
0P
0Q
0G
1;
19
07
0:
18
13
0>
0;
0I
0<
1:
08
0/
1>
0$
1?
1<
0?
#294000
0"
01
02
#295500
1"
11
12
1Q
16
03
#297000
0"
01
02
#298500
1"
11
12
1P
0Q
13
#300000
0"
01
02
#301500
1"
11
12
1Q
17
06
03
18
#303000
0"
01
02
#304500
1"
11
12
1O
0P
0Q
1G
09
07
08
13
1;
19
1I
0:
18
1/
0>
0;
1$
0<
1:
1>
1?
1<
0?
#306000
0"
01
02
#307500
1"
11
12
1Q
16
03
#309000
0"
01
02
#310500
1"
11
12
1P
0Q
13
#312000
0"
01
02
#313500
1"
11
12
1Q
17
06
03
09
08
1;
0:
0>
0<
1?
#315000
0"
01
02
#316500
1"
11
12
1L
0M
0N
0O
0P
0Q
1@
1>
0G
0;
19
07
0?
1<
1:
18
13
0C
0@
0A
1?
0I
0<
0:
08
0/
1C
0$
1D
1A
0D
#318000
0"
01
02
#319500
1"
11
12
1Q
16
03
#321000
0"
01
02
#322500
1"
11
12
1P
0Q
13
#324000
0"
01
02
#325500
1"
11
12
1Q
17
06
03
18
#327000
0"
01
02
#328500
1"
11
12
1O
0P
0Q
1G
09
07
08
13
19
1I
1:
18
1/
1$
0:
#330000
0"
01
02
#331500
1"
11
12
1Q
16
03
#333000
0"
01
02
#334500
1"
11
12
1P
0Q
13
#336000
0"
01
02
#337500
1"
11
12
1Q
17
06
03
09
08
1:
#339000
0"
01
02
#340500
1"
11
12
1N
0O
0P
0Q
0G
1;
19
07
0:
18
13
0;
0I
1<
1:
08
0/
0$
0<
#342000
0"
01
02
#343500
1"
11
12
1Q
16
03
#345000
0"
01
02
#346500
1"
11
12
1P
0Q
13
#348000
0"
01
02
#349500
1"
11
12
1Q
17
06
03
18
#351000
0"
01
02
#352500
1"
11
12
1O
0P
0Q
1G
09
07
08
13
1;
19
1I
0:
18
1/
0;
1$
1<
1:
0<
#354000
0"
01
02
#355500
1"
11
12
1Q
16
03
#357000
0"
01
02
#358500
1"
11
12
1P
0Q
13
#360000
0"
01
02
#361500
1"
11
12
1Q
17
06
03
09
08
1;
0:
1<
#363000
0"
01
02
#364500
1"
11
12
1M
0N
0O
0P
0Q
0>
0G
0;
19
07
0<
1:
18
13
1@
1>
0?
0I
1<
0:
08
0/
0C
0@
0$
0A
1?
1C
1D
1A
0D
#366000
0"
01
02
#367500
1"
11
12
1Q
16
03
#369000
0"
01
02
#370500
1"
11
12
1P
0Q
13
#372000
0"
01
02
#373500
1"
11
12
1Q
17
06
03
18
#375000
0"
01
02
#376500
1"
11
12
1O
0P
0Q
1G
09
07
08
13
19
1I
1:
18
1/
1$
0:
#378000
0"
01
02
#379500
1"
11
12
1Q
16
03
#381000
0"
01
02
#382500
1"
11
12
1P
0Q
13
#384000
0"
01
02
#385500
1"
11
12
1Q
17
06
03
09
08
1:
#387000
0"
01
02
#388500
1"
11
12
1N
0O
0P
0Q
0G
1;
19
07
0:
18
13
0>
0;
0I
0<
1:
08
0/
1@
1>
0$
0?
1<
0C
0@
0A
1?
1C
1D
1A
0D
#390000
0"
01
02
#391500
1"
11
12
1Q
16
03
#393000
0"
01
02
#394500
1"
11
12
1P
0Q
13
#396000
0"
01
02
#397500
1"
11
12
1Q
17
06
03
18
#399000
0"
01
02
#400500
1"
11
12
1O
0P
0Q
1G
09
07
08
13
1;
19
1I
0:
18
1/
0>
0;
1$
0<
1:
1@
1>
0?
1<
0C
0@
0A
1?
1C
1D
1A
0D
#402000
0"
01
02
#403500
1"
11
12
1Q
16
03
#405000
0"
01
02
#406500
1"
11
12
1P
0Q
13
#408000
0"
01
02
#409500
1"
11
12
1Q
17
06
03
09
08
1;
0:
0>
0<
1@
0?
0C
0A
1D
#411000
0"
01
02
#412500
1"
11
12
1J
0K
0L
0M
0N
0O
0P
0Q
0B
1C
0@
1>
0G
0;
19
07
0D
1A
1?
1<
1:
18
13
0E
1D
0A
0?
0I
0<
0:
08
0/
0$
#414000
0"
01
02
#415500
1"
11
12
1Q
16
03
#417000
0"
01
02
#418500
1"
11
12
1P
0Q
13
#420000
0"
01
02
#421500
1"
11
12
1Q
17
06
03
18
#423000
0"
01
02
#424500
1"
11
12
1O
0P
0Q
1G
09
07
08
13
19
1I
1:
18
1/
1$
0:
#426000
0"
01
02
#427500
1"
11
12
1Q
16
03
#429000
0"
01
02
#430500
1"
11
12
1P
0Q
13
#432000
0"
01
02
#433500
1"
11
12
1Q
17
06
03
09
08
1:
#435000
0"
01
02
#436500
1"
11
12
1N
0O
0P
0Q
0G
1;
19
07
0:
18
13
0;
0I
1<
1:
08
0/
0$
0<
#438000
0"
01
02
#439500
1"
11
12
1Q
16
03
#441000
0"
01
02
#442500
1"
11
12
1P
0Q
13
#444000
0"
01
02
#445500
1"
11
12
1Q
17
06
03
18
#447000
0"
01
02
#448500
1"
11
12
1O
0P
0Q
1G
09
07
08
13
1;
19
1I
0:
18
1/
0;
1$
1<
1:
0<
#450000
0"
01
02
#451500
1"
11
12
1Q
16
03
#453000
0"
01
02
#454500
1"
11
12
1P
0Q
13
#456000
0"
01
02
#457500
1"
11
12
1Q
17
06
03
09
08
1;
0:
1<
#459000
0"
01
02
#460500
1"
11
12
1M
0N
0O
0P
0Q
0>
0G
0;
19
07
0<
1:
18
13
1>
1?
0I
1<
0:
08
0/
0$
0?
#462000
0"
01
02
#463500
1"
11
12
1Q
16
03
#465000
0"
01
02
#466500
1"
11
12
1P
0Q
13
#468000
0"
01
02
#469500
1"
11
12
1Q
17
06
03
18
#471000
0"
01
02
#472500
1"
11
12
1O
0P
0Q
1G
09
07
08
13
19
1I
1:
18
1/
1$
0:
#474000
0"
01
02
#475500
1"
11
12
1Q
16
03
#477000
0"
01
02
#478500
1"
11
12
1P
0Q
13
#480000
0"
01
02
#481500
1"
11
12
1Q
17
06
03
09
08
1:
#483000
0"
01
02
#484500
1"
11
12
1N
0O
0P
0Q
0G
1;
19
07
0:
18
13
0>
0;
0I
0<
1:
08
0/
1>
0$
1?
1<
0?
#486000
0"
01
02
#487500
1"
11
12
1Q
16
03
#489000
0"
01
02
#490500
1"
11
12
1P
0Q
13
#492000
0"
01
02
#493500
1"
11
12
1Q
17
06
03
18
#495000
0"
01
02
#496500
1"
11
12
1O
0P
0Q
1G
09
07
08
13
1;
19
1I
0:
18
1/
0>
0;
1$
0<
1:
1>
1?
1<
0?
#498000
0"
01
02
#499500
1"
11
12
1Q
16
03
#501000
0"
01
02
#502500
1"
11
12
1P
0Q
13
#504000
0"
01
02
#505500
1"
11
12
1Q
17
06
03
09
08
1;
0:
0>
0<
1?
#507000
0"
01
02
#508500
1"
11
12
1L
0M
0N
0O
0P
0Q
1@
1>
0G
0;
19
07
0?
1<
1:
18
13
0@
1A
1?
0I
0<
0:
08
0/
0$
0A
#510000
0"
01
02
#511500
1"
11
12
1Q
16
03
#513000
0"
01
02
#514500
1"
11
12
1P
0Q
13
#516000
0"
01
02
#517500
1"
11
12
1Q
17
06
03
18
#519000
0"
01
02
#520500
1"
11
12
1O
0P
0Q
1G
09
07
08
13
19
1I
1:
18
1/
1$
0:
#522000
0"
01
02
#523500
1"
11
12
1Q
16
03
#525000
0"
01
02
#526500
1"
11
12
1P
0Q
13
#528000
0"
01
02
#529500
1"
11
12
1Q
17
06
03
09
08
1:
#530000
1#
14
15
0Q
0P
0O
0L
0J
07
0G
19
13
18
0?
0D
08
0I
0:
0/
0$
#531000
0"
01
02
#532500
1"
11
12
#534000
0"
01
02
#535500
1"
11
12
#537000
0"
01
02
#538500
1"
11
12
#540000
0"
01
02
#541500
1"
11
12
#543000
0"
01
02
#544500
1"
11
12
#546000
0"
01
02
#547500
1"
11
12
#549000
0"
01
02
#550500
1"
11
12
#552000
0"
01
02
#553500
1"
11
12
#555000
0"
01
02
#556500
1"
11
12
#558000
0"
01
02
#559500
1"
11
12
#561000
0"
01
02
#562500
1"
11
12
#564000
0"
01
02
#565500
1"
11
12
#567000
0"
01
02
#568500
1"
11
12
#570000
0"
01
02
#571500
1"
11
12
#573000
0"
01
02
#574500
1"
11
12
#576000
0"
01
02
#577500
1"
11
12
#579000
0"
01
02
#580500
1"
11
12
#582000
0"
01
02
#583500
1"
11
12
#585000
0"
01
02
#586500
1"
11
12
#588000
0"
01
02
#589500
1"
11
12
#591000
0"
01
02
#592500
1"
11
12
#594000
0"
01
02
#595500
1"
11
12
#597000
0"
01
02
#598500
1"
11
12
#600000
0"
01
02
#601500
1"
11
12
#603000
0"
01
02
#604500
1"
11
12
#606000
0"
01
02
#607500
1"
11
12
#609000
0"
01
02
#610500
1"
11
12
#612000
0"
01
02
#613500
1"
11
12
#615000
0"
01
02
#616500
1"
11
12
#618000
0"
01
02
#619500
1"
11
12
#621000
0"
01
02
#622500
1"
11
12
#624000
0"
01
02
#625500
1"
11
12
#627000
0"
01
02
#628500
1"
11
12
#630000
0"
01
02
#631500
1"
11
12
#633000
0"
01
02
#634500
1"
11
12
#636000
0"
01
02
#637500
1"
11
12
#639000
0"
01
02
#640500
1"
11
12
#642000
0"
01
02
#643500
1"
11
12
#645000
0"
01
02
#646500
1"
11
12
#648000
0"
01
02
#649500
1"
11
12
#651000
0"
01
02
#652500
1"
11
12
#654000
0"
01
02
#655500
1"
11
12
#657000
0"
01
02
#658500
1"
11
12
#660000
0#
0"
01
04
05
02
#661500
1"
11
12
1Q
16
03
#663000
0"
01
02
#664500
1"
11
12
1P
0Q
13
#666000
0"
01
02
#667500
1"
11
12
1Q
17
06
03
18
#669000
0"
01
02
#670500
1"
11
12
1O
0P
0Q
1G
09
07
08
13
19
1I
1:
18
1/
1$
0:
#672000
0"
01
02
#673500
1"
11
12
1Q
16
03
#675000
0"
01
02
#676500
1"
11
12
1P
0Q
13
#678000
0"
01
02
#679500
1"
11
12
1Q
17
06
03
09
08
1:
#681000
0"
01
02
#682500
1"
11
12
1N
0O
0P
0Q
0G
1;
19
07
0:
18
13
0;
0I
1<
1:
08
0/
0$
0<
#684000
0"
01
02
#685500
1"
11
12
1Q
16
03
#687000
0"
01
02
#688500
1"
11
12
1P
0Q
13
#690000
0"
01
02
#691500
1"
11
12
1Q
17
06
03
18
#693000
0"
01
02
#694500
1"
11
12
1O
0P
0Q
1G
09
07
08
13
1;
19
1I
0:
18
1/
0;
1$
1<
1:
0<
#696000
0"
01
02
#697500
1"
11
12
1Q
16
03
#699000
0"
01
02
#700500
1"
11
12
1P
0Q
13
#702000
0"
01
02
#703500
1"
11
12
1Q
17
06
03
09
08
1;
0:
1<
#705000
0"
01
02
#706500
1"
11
12
1M
0N
0O
0P
0Q
0>
0G
0;
19
07
0<
1:
18
13
1>
1?
0I
1<
0:
08
0/
0$
0?
#708000
0"
01
02
#709500
1"
11
12
1Q
16
03
#711000
0"
01
02
#712500
1"
11
12
1P
0Q
13
#714000
0"
01
02
#715500
1"
11
12
1Q
17
06
03
18
#717000
0"
01
02
#718500
1"
11
12
1O
0P
0Q
1G
09
07
08
13
19
1I
1:
18
1/
1$
0:
#720000
0"
01
02
#721500
1"
11
12
1Q
16
03
#723000
0"
01
02
#724500
1"
11
12
1P
0Q
13
#726000
0"
01
02
#727500
1"
11
12
1Q
17
06
03
09
08
1:
#729000
0"
01
02
#730500
1"
11
12
1N
0O
0P
0Q
0G
1;
19
07
0:
18
13
0>
0;
0I
0<
1:
08
0/
1>
0$
1?
1<
0?
#732000
0"
01
02
#733500
1"
11
12
1Q
16
03
#735000
0"
01
02
#736500
1"
11
12
1P
0Q
13
#738000
0"
01
02
#739500
1"
11
12
1Q
17
06
03
18
#741000
0"
01
02
#742500
1"
11
12
1O
0P
0Q
1G
09
07
08
13
1;
19
1I
0:
18
1/
0>
0;
1$
0<
1:
1>
1?
1<
0?
#744000
0"
01
02
#745500
1"
11
12
1Q
16
03
#747000
0"
01
02
#748500
1"
11
12
1P
0Q
13
#750000
0"
01
02
#751500
1"
11
12
1Q
17
06
03
09
08
1;
0:
0>
0<
1?
#753000
0"
01
02
#754500
1"
11
12
1L
0M
0N
0O
0P
0Q
1@
1>
0G
0;
19
07
0?
1<
1:
18
13
0@
1A
1?
0I
0<
0:
08
0/
0$
0A
#756000
0"
01
02
#757500
1"
11
12
1Q
16
03
#759000
0"
01
02
#760500
1"
11
12
1P
0Q
13
#762000
0"
01
02
#763500
1"
11
12
1Q
17
06
03
18
#765000
0"
01
02
#766500
1"
11
12
1O
0P
0Q
1G
09
07
08
13
19
1I
1:
18
1/
1$
0:
#768000
0"
01
02
#769500
1"
11
12
1Q
16
03
#771000
0"
01
02
#772500
1"
11
12
1P
0Q
13
#774000
0"
01
02
#775500
1"
11
12
1Q
17
06
03
09
08
1:
#777000
0"
01
02
#778500
1"
11
12
1N
0O
0P
0Q
0G
1;
19
07
0:
18
13
0;
0I
1<
1:
08
0/
0$
0<
#780000
0"
01
02
#781500
1"
11
12
1Q
16
03
#783000
0"
01
02
#784500
1"
11
12
1P
0Q
13
#786000
0"
01
02
#787500
1"
11
12
1Q
17
06
03
18
#789000
0"
01
02
#790500
1"
11
12
1O
0P
0Q
1G
09
07
08
13
1;
19
1I
0:
18
1/
0;
1$
1<
1:
0<
#792000
0"
01
02
#793500
1"
11
12
1Q
16
03
#795000
0"
01
02
#796500
1"
11
12
1P
0Q
13
#798000
0"
01
02
#799500
1"
11
12
1Q
17
06
03
09
08
1;
0:
1<
#801000
0"
01
02
#802500
1"
11
12
1M
0N
0O
0P
0Q
0>
0G
0;
19
07
0<
1:
18
13
1@
1>
0?
0I
1<
0:
08
0/
0@
0$
1A
1?
0A
#804000
0"
01
02
#805500
1"
11
12
1Q
16
03
#807000
0"
01
02
#808500
1"
11
12
1P
0Q
13
#810000
0"
01
02
#811500
1"
11
12
1Q
17
06
03
18
#813000
0"
01
02
#814500
1"
11
12
1O
0P
0Q
1G
09
07
08
13
19
1I
1:
18
1/
1$
0:
#816000
0"
01
02
#817500
1"
11
12
1Q
16
03
#819000
0"
01
02
#820500
1"
11
12
1P
0Q
13
#822000
0"
01
02
#823500
1"
11
12
1Q
17
06
03
09
08
1:
#825000
0"
01
02
#826500
1"
11
12
1N
0O
0P
0Q
0G
1;
19
07
0:
18
13
0>
0;
0I
0<
1:
08
0/
1@
1>
0$
0?
1<
0@
1A
1?
0A
#828000
0"
01
02
#829500
1"
11
12
1Q
16
03
#831000
0"
01
02
#832500
1"
11
12
1P
0Q
13
#834000
0"
01
02
#835500
1"
11
12
1Q
17
06
03
18
#837000
0"
01
02
#838500
1"
11
12
1O
0P
0Q
1G
09
07
08
13
1;
19
1I
0:
18
1/
0>
0;
1$
0<
1:
1@
1>
0?
1<
0@
1A
1?
0A
#840000
0"
01
02
#841500
1"
11
12
1Q
16
03
#843000
0"
01
02
#844500
1"
11
12
1P
0Q
13
#846000
0"
01
02
#847500
1"
11
12
1Q
17
06
03
09
08
1;
0:
0>
0<
1@
0?
1A
#849000
0"
01
02
#850500
1"
11
12
1K
0L
0M
0N
0O
0P
0Q
1B
0C
0@
1>
0G
0;
19
07
0A
1?
1<
1:
18
13
1E
1C
1D
1A
0?
0I
0<
0:
08
0/
0$
0D
#852000
0"
01
02
#853500
1"
11
12
1Q
16
03
#855000
0"
01
02
#856500
1"
11
12
1P
0Q
13
#858000
0"
01
02
#859500
1"
11
12
1Q
17
06
03
18
#861000
0"
01
02
#862500
1"
11
12
1O
0P
0Q
1G
09
07
08
13
19
1I
1:
18
1/
1$
0:
#864000
0"
01
02
#865500
1"
11
12
1Q
16
03
#867000
0"
01
02
#868500
1"
11
12
1P
0Q
13
#870000
0"
01
02
#871500
1"
11
12
1Q
17
06
03
09
08
1:
#873000
0"
01
02
#874500
1"
11
12
1N
0O
0P
0Q
0G
1;
19
07
0:
18
13
0;
0I
1<
1:
08
0/
0$
0<
#876000
0"
01
02
#877500
1"
11
12
1Q
16
03
#879000
0"
01
02
#880500
1"
11
12
1P
0Q
13
#882000
0"
01
02
#883500
1"
11
12
1Q
17
06
03
18
#885000
0"
01
02
#886500
1"
11
12
1O
0P
0Q
1G
09
07
08
13
1;
19
1I
0:
18
1/
0;
1$
1<
1:
0<
#888000
0"
01
02
#889500
1"
11
12
1Q
16
03
#891000
0"
01
02
#892500
1"
11
12
1P
0Q
13
#894000
0"
01
02
#895500
1"
11
12
1Q
17
06
03
09
08
1;
0:
1<
#897000
0"
01
02
#898500
1"
11
12
1M
0N
0O
0P
0Q
0>
0G
0;
19
07
0<
1:
18
13
1>
1?
0I
1<
0:
08
0/
0$
0?
#900000
0"
01
02
#901500
1"
11
12
1Q
16
03
#903000
0"
01
02
#904500
1"
11
12
1P
0Q
13
#906000
0"
01
02
#907500
1"
11
12
1Q
17
06
03
18
#909000
0"
01
02
#910500
1"
11
12
1O
0P
0Q
1G
09
07
08
13
19
1I
1:
18
1/
1$
0:
#912000
0"
01
02
#913500
1"
11
12
1Q
16
03
#915000
0"
01
02
#916500
1"
11
12
1P
0Q
13
#918000
0"
01
02
#919500
1"
11
12
1Q
17
06
03
09
08
1:
#921000
0"
01
02
#922500
1"
11
12
1N
0O
0P
0Q
0G
1;
19
07
0:
18
13
0>
0;
0I
0<
1:
08
0/
1>
0$
1?
1<
0?
#924000
0"
01
02
#925500
1"
11
12
1Q
16
03
#927000
0"
01
02
#928500
1"
11
12
1P
0Q
13
#930000
0"
01
02
#931500
1"
11
12
1Q
17
06
03
18
#933000
0"
01
02
#934500
1"
11
12
1O
0P
0Q
1G
09
07
08
13
1;
19
1I
0:
18
1/
0>
0;
1$
0<
1:
1>
1?
1<
0?
#936000
0"
01
02
#937500
1"
11
12
1Q
16
03
#939000
0"
01
02
#940500
1"
11
12
1P
0Q
13
#942000
0"
01
02
#943500
1"
11
12
1Q
17
06
03
09
08
1;
0:
0>
0<
1?
#945000
0"
01
02
#946500
1"
11
12
1L
0M
0N
0O
0P
0Q
1@
1>
0G
0;
19
07
0?
1<
1:
18
13
0C
0@
0A
1?
0I
0<
0:
08
0/
1C
0$
1D
1A
0D
#948000
0"
01
02
#949500
1"
11
12
1Q
16
03
#950000
1#
14
15
0Q
0L
0K
0B
06
13
0?
0A
0E
#951000
0"
01
02
#952500
1"
11
12
#954000
0"
01
02
#955500
1"
11
12
#957000
0"
01
02
#958500
1"
11
12
#960000
0"
01
02
#961500
1"
11
12
#963000
0"
01
02
#964500
1"
11
12
#966000
0"
01
02
#967500
1"
11
12
#969000
0"
01
02
#970500
1"
11
12
#972000
0"
01
02
#973500
1"
11
12
#975000
0"
01
02
#976500
1"
11
12
#978000
0"
01
02
#979500
1"
11
12
#981000
0"
01
02
#982500
1"
11
12
#984000
0"
01
02
#985500
1"
11
12
